e||--------------------------------
b||--10-12-10-9-10-9-7-9-7-5-7-----
g||--------------------------------
d||--------------------------------
a||--------------------------------
e||--------------------------------