﻿e||-------------------------------------------------
b||-------------------------------------------------
g||-------9----11-------9----11-------9----11-------
d||-11-11---11----11-11---11----11-11---11----11----
a||-------------------------------------------------
e||-------------------------------------------------