﻿
e||-----------------------------------------------------
b||-----------------------------------------------------
g||--------11----11-------11-------13----13-------13----
d||--12-12----12----12-12----12-12----12----12-12-------
a||-----------------------------------------------------
e||-----------------------------------------------------