﻿e||---------5-------------------------1-----------------------3----------3-------3-2-0----------------------3----3-2-0------5---1-0-------------------------------
b||-------------0-------2----------------0------2---------------0-----2-----------------3-----0-----0----2--------------2------------------0----------------------
g||---------------0------------------------0 0-------------------0-0----------------------2----------------------------2------------------------------------------
d||----------------------------------------------------------------------------------------------------0--------------------------------------------------0-------
a||----2-------------------------2-----------------------2----------------------------------------2--------------------------------------2--------2----4-----2----
e||--3---------------3---------3-----------------------3----------------------------------------3--------------------------------------3--------3----5-----3------